{
    "Header": {

        "title": "Dapatkan pekerjaan harian lebih mudah.",
        "paragraph": "Dengan Kuykerja, Anda dapat mencari informasi lowongan pekerjaan harian lebih mudah, di mana saja dan kapan saja."

    },
    "About": {
        "paragraph": "Kuykerja adalah sebuah platform berbasis web yang menghubungkan pencari kerja harian dengan penyedia jasa pekerjaan harian.",
        "Why": [
            "Lorem ipsum dolor",
            "Tempor incididunt",
            "Lorem ipsum dolor",
            "Incididunt ut labore"
        ],
        "Why2": [
            "Aliquip ex ea commodo",
            "Lorem ipsum dolor",
            "Exercitation ullamco",
            "Lorem ipsum dolor"
        ]
    },
    "Services": [{
            "icon": "fa fa-search",
            "name": "Pencarian Loker",
            "text": "Lorem ipsum dolor sit amet, consectetur adipiscing elit. Duis sed dapibus leo nec ornare diam sedasd commodo nibh ante facilisis bibendum dolor feugiat at."
        },
        {
            "icon": "fa fa-cart-arrow-down",
            "name": "Consectetur adipiscing",
            "text": "Lorem ipsum dolor sit amet, consectetur adipiscing elit. Duis sed dapibus leo nec ornare diam sedasd commodo nibh ante facilisis bibendum dolor feugiat at."
        },
        {
            "icon": "fa fa-cloud-download",
            "name": "Lorem ipsum dolor",
            "text": "Lorem ipsum dolor sit amet, consectetur adipiscing elit. Duis sed dapibus leo nec ornare diam sedasd commodo nibh ante facilisis bibendum dolor feugiat at."
        },
        {
            "icon": "fa fa-language",
            "name": "Consectetur adipiscing",
            "text": "Lorem ipsum dolor sit amet, consectetur adipiscing elit. Duis sed dapibus leo nec ornare diam sedasd commodo nibh ante facilisis bibendum dolor feugiat at."
        },
        {
            "icon": "fa fa-plane",
            "name": "Lorem ipsum dolor",
            "text": "Lorem ipsum dolor sit amet, consectetur adipiscing elit. Duis sed dapibus leo nec ornare diam sedasd commodo nibh ante facilisis bibendum dolor feugiat at."
        },
        {
            "icon": "fa fa-pie-chart",
            "name": "Consectetur adipiscing",
            "text": "Lorem ipsum dolor sit amet, consectetur adipiscing elit. Duis sed dapibus leo nec ornare diam sedasd commodo nibh ante facilisis bibendum dolor feugiat at."
        }


    ],
    "Testimonials": [{
            "img": "img/testimonials/01.jpg",
            "text": "\"Lorem ipsum dolor sit amet, consectetur adipiscing elit. Duis sed dapibus leo nec ornare diam sedasd commodo nibh ante facilisis bibendum dolor feugiat at.\"",
            "name": "Pak Agus, HRD Hotel"
        },
        {
            "img": "img/testimonials/02.jpg",
            "text": "\"Lorem ipsum dolor sit amet, consectetur adipiscing elit. Duis sed dapibus leo nec ornare diam sedasd commodo nibh ante facilisis bibendum dolor feugiat at.\"",
            "name": "Johnathan Doe"
        },
        {
            "img": "img/testimonials/03.jpg",
            "text": "\"Lorem ipsum dolor sit amet, consectetur adipiscing elit. Duis sed dapibus leo nec ornare diam sedasd commodo nibh ante facilisis bibendum dolor feugiat at.\"",
            "name": "John Doe"
        },
        {
            "img": "img/testimonials/04.jpg",
            "text": "\"Lorem ipsum dolor sit amet, consectetur adipiscing elit. Duis sed dapibus leo nec ornare diam sedasd commodo nibh ante facilisis bibendum dolor feugiat at.\"",
            "name": "Johnathan Doe"
        },
        {
            "img": "img/testimonials/05.jpg",
            "text": "\"Lorem ipsum dolor sit amet, consectetur adipiscing elit. Duis sed dapibus leo nec ornare diam sedasd commodo nibh ante facilisis bibendum dolor feugiat at.\"",
            "name": "John Doe"
        },
        {
            "img": "img/testimonials/06.jpg",
            "text": "\"Lorem ipsum dolor sit amet, consectetur adipiscing elit. Duis sed dapibus leo nec ornare diam sedasd commodo nibh ante facilisis bibendum dolor feugiat at.\"",
            "name": "Johnathan Doe"
        }
    ],
    "Team": [{
            "img": "img/team/01.jpg",
            "name": "Sekar Merta",
            "job": "CEO"
        },
        {
            "img": "img/team/02.jpg",
            "name": "Mahendra Putra",
            "job": "CTO"
        }, {
            "img": "img/team/03.jpg",
            "name": "Alit Indrawan",
            "job": "Back-End Developer"
        },
        {
            "img": "img/team/04.jpg",
            "name": "Made Wardana",
            "job": "Front-End Developer"
        }
    ],
    "Contact": {
        "address": "BCIC Denpasar, Jl. W.R. Supratman 302, Kesiman Kertalangu, Denpasar, Bali ",
        "phone": "+62 887 0301 0139",
        "email": "info@kuykerja.com",
        "facebook": "http://facebook.com/kuykerja.indo",
        "twitter": "http://twitter.com/kuykerja",
        "youtube": "http://youtube.com/Kuykerja"
    },
    "Features": [{
            "icon": "fa fa-comments-o",
            "title": "Mudah",
            "text": "Dapatkan informasi lowongan pekerjaan dengan lebih mudah dari mana saja dan kapan saja."
        },
        {
            "icon": "fa fa-bullhorn",
            "title": "Aman",
            "text": "Tak perlu lagi khawatir mengenai keamanan transaksi pembayaran upah kerja."
        },
        {
            "icon": "fa fa-group",
            "title": "Terpercaya",
            "text": "Dapatkan informasi lowongan pekerjaan yang terpercaya dan jelas."
        },
        {
            "icon": "fa fa-magic",
            "title": "Beragam",
            "text": "Pilih bidang kategori lowongan pekerjaan yang luas dan beragam."
        }
    ]
}